;LEADER: 12 
;HEADER: 
;CODE  : ASCII 
;FILE  : drill-1-2.drl for  ... layers TOP and BOTTOM
;T01 Holesize 1. = 0.200000 Tolerance = +0.000000/-0.000000 PLATED MM Quantity = 178
%
G90
T01
X0139100Y0098800
X0139100Y0099427
X0111200Y0104300
X0113700Y0100500
X0114000Y0102750
X0118500Y0096500
X0133100Y0101100
X0137300Y0105100
X0136600Y0104300
X0107800Y0105100
X0107800Y0101300
X0108100Y0096700
X0111700Y0094900
X0115900Y0094600
X0120800Y0094700
X0124500Y0094800
X0129300Y0094800
X0133400Y0094700
X0137500Y0094700
X0142000Y0094700
X0137400Y0096800
X0131300Y0096800
X0125300Y0097400
X0128200Y0100400
X0130800Y0102100
X0138200Y0100900
X0135400Y0102400
X0131000Y0104500
X0115300Y0102900
X0117400Y0102900
X0125100Y0103500
X0128975Y0103500
X0118299Y0103800
X0113900Y0101800
X0120100Y0103200
X0120200Y0099600
X0119625Y0102700
X0120200Y0098700
X0118500Y0103200
X0119000Y0097700
X0118975Y0102700
X0119600Y0098000
X0125925Y0102950
X0129100Y0102700
X0139300Y0101800
X0111400Y0101700
X0114376Y0100324
X0124500Y0104000
X0129525Y0104100
X0114400Y0101200
X0114200Y0103600
X0114200Y0099475
X0111300Y0106856
X0134700Y0106900
X0134150Y0105800
X0131500Y0107450
X0129800Y0109400
X0130050Y0110100
X0130500Y0111800
X0131600Y0108950
X0138950Y0109050
X0139250Y0111400
X0139100Y0110700
X0143000Y0112150
X0127900Y0116000
X0127900Y0115100
X0132800Y0116200
X0132700Y0114600
X0132500Y0112800
X0130700Y0115200
X0140350Y0115650
X0142350Y0114050
X0132700Y0117500
X0131600Y0118300
X0140450Y0122050
X0129150Y0124300
X0131250Y0126600
X0143700Y0123900
X0140300Y0126750
X0141400Y0124350
X0144200Y0126450
X0136850Y0127700
X0124600Y0106800
X0118800Y0109600
X0119000Y0111200
X0119900Y0110600
X0121300Y0109100
X0120800Y0108600
X0121800Y0108600
X0119900Y0113200
X0120700Y0114000
X0128000Y0117500
X0108600Y0120350
X0112700Y0122400
X0110800Y0125800
X0108450Y0123400
X0115550Y0123750
X0112600Y0127400
X0124650Y0124800
X0127100Y0115900
X0127100Y0116500
X0126700Y0117000
X0108000Y0127800
X0115300Y0127800
X0118500Y0127600
X0120800Y0127700
X0123300Y0127600
X0124000Y0126500
X0126700Y0127800
X0130600Y0127800
X0135700Y0123800
X0128900Y0120800
X0132300Y0120800
X0137000Y0118800
X0141300Y0119100
X0127200Y0120000
X0124100Y0116200
X0124400Y0118000
X0124400Y0121600
X0123000Y0118300
X0118700Y0119600
X0119200Y0126100
X0113600Y0120100
X0116800Y0118000
X0117500Y0116500
X0115200Y0116700
X0111800Y0116600
X0110500Y0114700
X0109700Y0117700
X0110800Y0121400
X0108000Y0111800
X0133300Y0110600
X0134700Y0114600
X0137800Y0107100
X0144400Y0116600
X0139100Y0117200
X0136800Y0111300
X0115200Y0113700
X0118400Y0113600
X0115800Y0112000
X0117200Y0107300
X0115300Y0105600
X0115300Y0109600
X0127300Y0122500
X0123200Y0112700
X0124100Y0112700
X0125000Y0112700
X0125900Y0112700
X0123200Y0111800
X0124100Y0111800
X0125000Y0111800
X0125900Y0111800
X0123200Y0110900
X0124100Y0110900
X0125000Y0110900
X0125900Y0110900
X0125900Y0110000
X0125000Y0110000
X0124100Y0110000
X0123200Y0110000
X0141800Y0108300
X0141800Y0109400
X0113725Y0105600
X0108900Y0106800
X0108900Y0105500
X0113700Y0109281
X0113299Y0110702
X0138100Y0106200
X0138900Y0106200
X0138100Y0105600
X0138900Y0105600
X0138500Y0105900
X0144700Y0127800
X0144900Y0108400
X0144700Y0121300
X0145100Y0097200
X0145100Y0105000
X0145100Y0100900
M30
