;LEADER: 12 
;HEADER: 
;CODE  : ASCII 
;FILE  : CC2650_SensorTag-1-4-np.drl for  ... layers TOP and BOTTOM
;T02 Holesize 1. = 0.600000 Tolerance = +0.000000/-0.000000 NON_PLATED MM Quantity = 2
;T03 Holesize 2. = 0.900000 Tolerance = +0.000000/-0.000000 NON_PLATED MM Quantity = 6
%
G90
T02
X0036185Y0010608
X0036187Y0010608
T03
X0002067Y0028658
X0002067Y0024358
X0003167Y0017926
X0003167Y0010076
X0039917Y0024358
X0039917Y0028658
M30
