;LEADER: 12 
;HEADER: 
;CODE  : ASCII 
;FILE  : drill-1-2-np.drl for  ... layers TOP and BOTTOM
;T03 Holesize 1. = 1.501000 Tolerance = +0.000000/-0.000000 NON_PLATED MM Quantity = 4
%
G90
T03
X0111302Y0111588
X0111302Y0096982
X0141782Y0111588
X0141782Y0096982
M30
