"Part";"Value";"Device";"Package";"Description";"VOLTAGE";
"C1";"1uF";"CAP0603-CAP";"0603-CAP";"Capacitor";"";
"C2";"DNM";"CAP0603-CAP";"0603-CAP";"Capacitor";"";
"C3";"100nF";"CAP0603-CAP";"0603-CAP";"Capacitor";"";
"C4";"100nF";"CAP0603-CAP";"0603-CAP";"Capacitor";"";
"C5";"100nF";"CAP0603-CAP";"0603-CAP";"Capacitor";"";
"C6";"10uF";"CAP0603-CAP";"0603-CAP";"Capacitor";"";
"C7";"100nF";"CAP0603-CAP";"0603-CAP";"Capacitor";"";
"C8";"10uF";"CAP0603-CAP";"0603-CAP";"Capacitor";"";
"C9";"100nF";"CAP0603-CAP";"0603-CAP";"Capacitor";"";
"C10";"DNM";"CAP0603-CAP";"0603-CAP";"Capacitor";"";
"C11";"1pF";"CAP0402-CAP";"0402-CAP";"Capacitor";"";
"C12";"DNM";"CAP0402-CAP";"0402-CAP";"Capacitor";"";
"C13";"1pF";"CAP0402-CAP";"0402-CAP";"Capacitor";"";
"C13_1";"10uF";"DP_DEVICES_CAPACITOR_NPOL-0603";"DP_DEVICES_C603";"Non-Polarized capacitor in various packages";"";
"C14";"12pF";"CAP0402-CAP";"0402-CAP";"Capacitor";"";
"C14_1";"10uF";"DP_DEVICES_CAPACITOR_NPOL-0603";"DP_DEVICES_C603";"Non-Polarized capacitor in various packages";"";
"C15";"DNM";"CAP0402-CAP";"0402-CAP";"Capacitor";"";
"C15_1";"4.7Uf";"DP_DEVICES_CAPACITOR_NPOL-0603";"DP_DEVICES_C603";"Non-Polarized capacitor in various packages";"";
"C16";"100nF";"CAP0603-CAP";"0603-CAP";"Capacitor";"";
"C16_1";"4.7Uf";"DP_DEVICES_CAPACITOR_NPOL-0603";"DP_DEVICES_C603";"Non-Polarized capacitor in various packages";"";
"C17";"12pF";"CAP0402-CAP";"0402-CAP";"Capacitor";"";
"C18";"12pF";"CAP0402-CAP";"0402-CAP";"Capacitor";"";
"C19";"1uF";"CAP0402-CAP";"0402-CAP";"Capacitor";"";
"C20";"100nF";"CAP0402-CAP";"0402-CAP";"Capacitor";"";
"C21";"1pF";"CAP0402-CAP";"0402-CAP";"Capacitor";"";
"C22";"DNM";"CAP0402-CAP";"0402-CAP";"Capacitor";"";
"C22_1";"100nF";"CAP0603-CAP";"0603-CAP";"Capacitor";"";
"C23";"DNM";"CAP0402-CAP";"0402-CAP";"Capacitor";"";
"C24";"1uF";"CAP0603-CAP";"0603-CAP";"Capacitor";"";
"C25";"0.1uF";"CAP0603-CAP";"0603-CAP";"Capacitor";"";
"C26";"0.1uF";"CAP0603-CAP";"0603-CAP";"Capacitor";"";
"C28_2";"100nF";"CAP0603-CAP";"0603-CAP";"Capacitor";"";
"C31";"6.8pF";"CAP0402-CAP";"0402-CAP";"Capacitor";"";
"CHRG";"LED";"DP_DEVICES_LED-0603";"DP_DEVICES_LED-603";"Light Emitting Diode";"";
"FL1";"BLM18HE152SN1";"INDUCTOR0603";"0603";"Inductors";"";
"J1";"";"USB-1981568";"1981568-1";"";"";
"J2";"";"ARM-10PIN-JTAG";"ARM-10PIN-DEBUGGER";"ARM 2x5 pin 1.27 mm pitch Jtag connector";"";
"JP1";"";"M05X20.05_IN_PTH_SILK";"2X5_PTH_SILK_.05";"Header 5x2";"";
"JP2";"";"M03PTH";"1X03";"Header 3";"";
"JP4";"";"M02JST-PTH-VERT";"JST-2-PTH-VERT";"Standard 2-pin 0.1" header. Use with";"";
"JP5";"";"M02PTH";"1X02";"Standard 2-pin 0.1" header. Use with";"";
"JP6";"";"M05X20.05_IN_PTH_SILK";"2X5_PTH_SILK_.05";"Header 5x2";"";
"L1";"10uH";"INDUCTOR0805";"0805";"Inductors";"";
"L11";"2.4nH";"LQG15HS2N4S02D";"LQG15HS2N4S02D";"FIXED IND 2.4NH 300MA 150 MOHM - RF bobin";"";
"L12";"2nH";"LQG15HS2N4S02D";"LQG15HS2N4S02D";"FIXED IND 2.4NH 300MA 150 MOHM - RF bobin";"";
"L13";"2nH";"LQG15HS2N4S02D";"LQG15HS2N4S02D";"FIXED IND 2.4NH 300MA 150 MOHM - RF bobin";"";
"L21";"2.4nH";"LQG15HS2N4S02D";"LQG15HS2N4S02D";"FIXED IND 2.4NH 300MA 150 MOHM - RF bobin";"";
"LED3";"";"MICROBUILDER_LED0805";"MICROBUILDER_CHIPLED_0805";"LED";"";
"LED4";"";"MICROBUILDER_LED0805";"MICROBUILDER_CHIPLED_0805";"LED";"";
"R1";"100k";"RESISTOR0402-RES";"0402-RES";"Resistor";"";
"R2";"4.7k";"R-EU_R0603";"R0603";"RESISTOR, European symbol";"";
"R3";"100k";"R-EU_R0603";"R0603";"RESISTOR, European symbol";"";
"R4";"100k";"R-EU_R0603";"R0603";"RESISTOR, European symbol";"";
"R5";"2k2";"SPARKFUN-RESISTORS_RESISTOR0805-RES";"SPARKFUN-RESISTORS_0805";"Resistor";"";
"R6";"330";"SPARKFUN-RESISTORS_RESISTOR0805-RES";"SPARKFUN-RESISTORS_0805";"Resistor";"";
"R7";"10k";"R-EU_R0603";"R0603";"RESISTOR, European symbol";"";
"R8";"10k";"R-EU_R0603";"R0603";"RESISTOR, European symbol";"";
"R9";"10k";"R-EU_R0603";"R0603";"RESISTOR, European symbol";"";
"R10";"680";"R-EU_R0603";"R0603";"RESISTOR, European symbol";"";
"R11";"680";"R-EU_R0603";"R0603";"RESISTOR, European symbol";"";
"R12";"0";"R-EU_R0402";"R0402";"RESISTOR, European symbol";"";
"R13";"680";"R-EU_R0603";"R0603";"RESISTOR, European symbol";"";
"R14";"680";"R-EU_R0603";"R0603";"RESISTOR, European symbol";"";
"R16";"2.2K";"R-EU_R0603";"R0603";"RESISTOR, European symbol";"";
"S1";"";"B3U-1000P-SWITCH";"B3U-1000P-SWITCH";"B3U-1000P - Ultra-small Tactile Switch (SMT)";"";
"S2";"";"B3U-1000P-SWITCH";"B3U-1000P-SWITCH";"B3U-1000P - Ultra-small Tactile Switch (SMT)";"";
"U$1";"";"PCB-ANTENNA";"PCB-ANTENNA";"";"";
"U1";"";"CC2650";"CC2650";"";"";
"U2";"";"HDC1000YPA";"HDC1000YPA";"HDC1000 -Humidity Sensor";"";
"U3";"";"W25X40CLUXIGSS";"W25X40SSIG";"ISSI serial flash  -Flash Memory";"";
"U4";"";"SP0503BAHT";"SP0503BAHT";"";"";
"U5";"";"USBUG_MIC5225-3.3YM5";"USBUG_SOT23-5";"Ultra-Low Quiescent Current";"3.3V";
"U6";"";"CP2103_USB_UART";"MLP28";"Single-Chip USB to UART Bridge";"";
"U7";"ADAFRUIT_MCP73831/OT";"ADAFRUIT_MCP73831/OT";"ADAFRUIT_SOT23-5L";"MCP73831/2";"";
"Y1";"32768kHz";"CRYSTAL_RESONATOR";"CRYSTAL_RESONATOR";"CMR200T -CRYSTAL RESONATOR";"";
"Y2";"";"TSX-3225";"TSX-3225";"TSX-3225 -Crystal OSC.";"";
